<?xml version="1.0" encoding="UTF-8"?>
<svg xmlns="http://www.w3.org/2000/svg" viewBox="0 0 1000 1000">
	<path
		d="
			M 535.355,535.355
			A 50,50 0 0,1 464.645,464.645
			L 745.269,184.020
			A 400,400 0 0,0 217.157,782.843
			A 50,50 0 0,1 146.447,853.553
			A 500,500 0 0,1 853.553,146.447
			A 50,50 0 0,1 853.553,217.157
			Z"/>
</svg>
