<?xml version="1.0" encoding="UTF-8"?>
<glyph name="ki" format="2">
	<advance width="1100"/>
	<unicode hex="E02E"/>
	<outline>
		<anchor x="550" y="275" name="bottom"/>
		<contour>
			<point x="585.355" y="535.355" type="line" smooth="yes"/>
			<point x="593.354" y="527.286"/>
			<point x="600" y="511.361"/>
			<point x="600" y="500" type="curve" smooth="yes"/>
			<point x="600" y="472.399"/>
			<point x="577.601" y="450"/>
			<point x="550" y="450" type="curve" smooth="yes"/>
			<point x="538.639" y="450"/>
			<point x="522.714" y="456.646"/>
			<point x="514.645" y="464.645" type="curve" smooth="yes"/>
			<point x="196.447" y="782.843" type="line" smooth="yes"/>
			<point x="188.363" y="790.927"/>
			<point x="181.803" y="806.766"/>
			<point x="181.803" y="818.198" type="curve" smooth="yes"/>
			<point x="181.803" y="829.63"/>
			<point x="188.363" y="845.469"/>
			<point x="196.447" y="853.553" type="curve" smooth="yes"/>
			<point x="277.285" y="934.392"/>
			<point x="435.677" y="1000"/>
			<point x="550" y="1000" type="curve" smooth="yes"/>
			<point x="664.323" y="1000"/>
			<point x="822.715" y="934.392"/>
			<point x="903.553" y="853.553" type="curve" smooth="yes"/>
			<point x="911.552" y="845.484"/>
			<point x="918.043" y="829.715"/>
			<point x="918.043" y="818.353" type="curve" smooth="yes"/>
			<point x="918.043" y="790.753"/>
			<point x="895.644" y="768.353"/>
			<point x="868.043" y="768.353" type="curve" smooth="yes"/>
			<point x="856.682" y="768.353"/>
			<point x="840.912" y="774.845"/>
			<point x="832.843" y="782.843" type="curve" smooth="yes"/>
			<point x="768.172" y="847.514"/>
			<point x="641.459" y="900"/>
			<point x="550" y="900" type="curve" smooth="yes"/>
			<point x="474.362" y="900"/>
			<point x="364.481" y="862.359"/>
			<point x="304.731" y="815.98" type="curve"/>
		</contour>
		<contour>
			<point x="267.157" y="217.157" type="curve" smooth="yes"/>
			<point x="331.828" y="152.486"/>
			<point x="458.542" y="100"/>
			<point x="550" y="100" type="curve" smooth="yes"/>
			<point x="641.458" y="100"/>
			<point x="768.172" y="152.486"/>
			<point x="832.843" y="217.157" type="curve" smooth="yes"/>
			<point x="840.912" y="225.155"/>
			<point x="856.682" y="231.647"/>
			<point x="868.043" y="231.647" type="curve" smooth="yes"/>
			<point x="895.644" y="231.647"/>
			<point x="918.043" y="209.247"/>
			<point x="918.043" y="181.647" type="curve" smooth="yes"/>
			<point x="918.043" y="170.285"/>
			<point x="911.552" y="154.516"/>
			<point x="903.553" y="146.447" type="curve" smooth="yes"/>
			<point x="822.715" y="65.6084"/>
			<point x="664.323" y="0"/>
			<point x="550" y="0" type="curve" smooth="yes"/>
			<point x="435.677" y="0"/>
			<point x="277.285" y="65.6084"/>
			<point x="196.447" y="146.447" type="curve" smooth="yes"/>
			<point x="188.448" y="154.516"/>
			<point x="181.957" y="170.285"/>
			<point x="181.957" y="181.647" type="curve" smooth="yes"/>
			<point x="181.957" y="209.247"/>
			<point x="204.356" y="231.647"/>
			<point x="231.957" y="231.647" type="curve" smooth="yes"/>
			<point x="243.318" y="231.647"/>
			<point x="259.088" y="225.155"/>
		</contour>
	</outline>
</glyph>
