<?xml version="1.0" encoding="UTF-8"?>
<svg xmlns="http://www.w3.org/2000/svg" viewBox="0 0 1000 1000">
	<path
		d="
			M 464.645,464.645
			A 50,50 0 0,1 535.355,535.355
			L 254.731,815.980
			A 400,400 0 0,0 782.843,217.157
			A 50,50 0 0,1 853.553,146.447
			A 500,500 0 1,1 146.447,146.447
			A 50,50 0 0,1 217.157,217.157
			A 400,400 0 0,0 184.020,745.269
			Z"/>
</svg>
